<?xml version="1.0" standalone="no"?>
<!DOCTYPE svg PUBLIC "-//W3C//DTD SVG 1.1//EN" "http://www.w3.org/Graphics/SVG/1.1/DTD/svg11.dtd" >
<svg xmlns="http://www.w3.org/2000/svg">
<metadata>Generated by IcoMoon</metadata>
<defs>
<font id="icomoon" horiz-adv-x="1024">
<font-face units-per-em="1024" ascent="960" descent="-64" />
<missing-glyph horiz-adv-x="1024" />
<glyph unicode="&#x20;" horiz-adv-x="512" d="" />
<glyph unicode="&#xe900;" glyph-name="map" d="M512-64c-19.2 0-38.4 12.8-51.2 25.6l-256 384c-51.2 64-76.8 147.2-76.8 230.4 0 211.2 172.8 384 384 384s384-172.8 384-384c0-83.2-25.6-166.4-76.8-230.4l-256-384c-12.8-12.8-32-25.6-51.2-25.6zM512 832c-140.8 0-256-115.2-256-256 0-57.6 19.2-108.8 51.2-153.6l204.8-307.2 204.8 307.2c32 44.8 51.2 96 51.2 153.6 0 140.8-115.2 256-256 256zM512 512c-19.2 0-32 6.4-44.8 19.2s-19.2 25.6-19.2 44.8 6.4 32 19.2 44.8c25.6 25.6 64 25.6 89.6 0 12.8-12.8 19.2-25.6 19.2-44.8s-6.4-32-19.2-44.8c-12.8-12.8-25.6-19.2-44.8-19.2z" />
<glyph unicode="&#xe901;" glyph-name="phone" d="M723.2-64c-121.6 0-320 147.2-448 275.2-38.4 38.4-384 390.4-243.2 531.2l179.2 192c6.4 19.2 25.6 25.6 44.8 25.6s32-6.4 44.8-19.2l192-198.4c19.2-19.2 25.6-44.8 12.8-70.4l-57.6-121.6c6.4-19.2 25.6-51.2 70.4-96s76.8-64 96-70.4l121.6 57.6c25.6 12.8 51.2 6.4 70.4-12.8l198.4-192c12.8-12.8 19.2-32 19.2-44.8 0-19.2-6.4-32-19.2-44.8l-198.4-179.2c-12.8-12.8-38.4-32-83.2-32zM128 659.2c0-38.4 70.4-185.6 243.2-358.4 166.4-166.4 307.2-236.8 358.4-236.8 0 0 0 0 0 0l140.8 128-115.2 115.2-76.8-38.4c-12.8-6.4-32-12.8-51.2-12.8-76.8 0-166.4 83.2-192 108.8-32 25.6-115.2 115.2-115.2 192 0 25.6 6.4 38.4 12.8 51.2l38.4 76.8-115.2 115.2-128-140.8z" />
<glyph unicode="&#xe902;" glyph-name="mail" d="M960 64h-896c-38.4 0-64 25.6-64 64v640c0 38.4 25.6 64 64 64h896c38.4 0 64-25.6 64-64v-640c0-38.4-25.6-64-64-64zM128 192h768v512h-768v-512zM512 320c-12.8 0-19.2 0-32 6.4l-448 256c-32 19.2-38.4 57.6-25.6 89.6 19.2 32 57.6 38.4 89.6 25.6l416-236.8 416 236.8c32 12.8 70.4 6.4 89.6-25.6 12.8-32 6.4-70.4-25.6-89.6l-448-256c-12.8-6.4-19.2-6.4-32-6.4z" />
<glyph unicode="&#xe903;" glyph-name="arrow" horiz-adv-x="559" d="M102.4 922.764l-102.4-102.4 344.436-344.436-344.436-344.436 102.4-102.4 446.836 446.836z" />
<glyph unicode="&#xe904;" glyph-name="logo" horiz-adv-x="1083" d="M4.389 689.371h361.326v264.777h434.469v-367.177h277.943v-645.12h-434.469v342.309h84.846v-254.537h264.777v469.577h-264.777v-89.234h-84.846v177.006h71.68v279.406h-264.777v-279.406h71.68v-87.771h-156.526v100.937h-276.48v-277.943h276.48v89.234h84.846v-177.006h-446.171v365.714z" />
<glyph unicode="&#xe905;" glyph-name="menu" d="M969.6 704h-915.2c-27.2 0-48 20.8-48 48v0c0 27.2 20.8 48 48 48h915.2c27.2 0 48-20.8 48-48v0c0-27.2-22.4-48-48-48zM969.6 400h-915.2c-27.2 0-48 20.8-48 48v0c0 27.2 20.8 48 48 48h915.2c27.2 0 48-20.8 48-48v0c0-27.2-22.4-48-48-48zM969.6 96h-915.2c-27.2 0-48 20.8-48 48v0c0 27.2 20.8 48 48 48h915.2c27.2 0 48-20.8 48-48v0c0-27.2-22.4-48-48-48z" />
<glyph unicode="&#xe906;" glyph-name="cross" d="M1024 913.461l-46.539 46.539-465.461-465.461-465.461 465.461-46.539-46.539 465.461-465.461-465.461-465.461 46.539-46.539 465.461 465.461 465.461-465.461 46.539 46.539-465.461 465.461z" />
</font></defs></svg>